rv32i_sc_tb.vcd
$date
	Fri Sep 26 17:00:00 2025
$end
$version
	Icarus Verilog
$end
$timescale
	1s
$end
$scope module rv32i_sc_tb $end
$var wire 32 ! WriteData [31:0] $end
$var wire 1 " MemWrite $end
$var wire 32 # DataAdr [31:0] $end
$var reg 1 $ clk $end
$var reg 1 % reset $end
$scope module dut $end
$var wire 1 $ clk $end
$var wire 1 % rst_n $end
$var wire 32 & WriteData [31:0] $end
$var wire 32 ' ReadData [31:0] $end
$var wire 32 ( PC [31:0] $end
$var wire 1 " MemWrite $end
$var wire 32 ) Instr [31:0] $end
$var wire 32 * DataAdr [31:0] $end
$scope module dmem $end
$var wire 1 $ clk $end
$var wire 32 + rd [31:0] $end
$var wire 1 " we $end
$var wire 32 , wd [31:0] $end
$var wire 32 - a [31:0] $end
$upscope $end
$scope module imem $end
$var wire 32 . rd [31:0] $end
$var wire 32 / a [31:0] $end
$upscope $end
$scope module rvsingle $end
$var wire 32 0 ReadData [31:0] $end
$var wire 1 $ clk $end
$var wire 32 1 instr [31:0] $end
$var wire 1 % rst_n $end
$var wire 1 2 Zero $end
$var wire 32 3 WriteData [31:0] $end
$var wire 2 4 ResultSrc [1:0] $end
$var wire 1 5 RegWrite $end
$var wire 1 6 PCSrc $end
$var wire 32 7 PC [31:0] $end
$var wire 1 " MemWrite $end
$var wire 2 8 ImmSrc [1:0] $end
$var wire 1 9 ALUSrc $end
$var wire 32 : ALUResult [31:0] $end
$var wire 4 ; ALUControl [3:0] $end
$scope module c $end
$var wire 1 < Branch_Taken $end
$var wire 1 6 PCSrc $end
$var wire 3 = funct3 [2:0] $end
$var wire 1 > funct7_5 $end
$var wire 7 ? opcode [6:0] $end
$var wire 1 2 Zero $end
$var wire 2 @ ResultSrc [1:0] $end
$var wire 1 5 RegWrite $end
$var wire 1 " MemWrite $end
$var wire 1 A Jump $end
$var wire 2 B ImmSrc [1:0] $end
$var wire 1 C Branch $end
$var wire 1 9 ALUSrc $end
$var wire 2 D ALUOp [1:0] $end
$var wire 4 E ALUControl [3:0] $end
$scope module ad $end
$var wire 3 F funct3 [2:0] $end
$var wire 1 > funct7_5 $end
$var wire 1 G op5 $end
$var wire 2 H op5func7_5_concat [1:0] $end
$var wire 2 I ALUOp [1:0] $end
$var reg 4 J ALUControl [3:0] $end
$upscope $end
$scope module md $end
$var wire 7 K opcode [6:0] $end
$var reg 2 L ALUOp [1:0] $end
$var reg 1 9 ALUSrc $end
$var reg 1 C Branch $end
$var reg 2 M ImmSrc [1:0] $end
$var reg 1 A Jump $end
$var reg 1 " MemWrite $end
$var reg 1 5 RegWrite $end
$var reg 2 N ResultSrc [1:0] $end
$upscope $end
$upscope $end
$scope module dp $end
$var wire 4 O ALUControl [3:0] $end
$var wire 1 9 ALUSrc $end
$var wire 2 P ImmSrc [1:0] $end
$var wire 1 6 PCSrc $end
$var wire 32 Q ReadData [31:0] $end
$var wire 1 5 RegWrite $end
$var wire 2 R ResultSrc [1:0] $end
$var wire 1 $ clk $end
$var wire 32 S instr [31:0] $end
$var wire 1 % rst_n $end
$var wire 32 T immext [31:0] $end
$var wire 1 2 Zero $end
$var wire 32 U WriteData [31:0] $end
$var wire 32 V SrcB [31:0] $end
$var wire 32 W SrcA [31:0] $end
$var wire 32 X Result [31:0] $end
$var wire 32 Y PCTarget [31:0] $end
$var wire 32 Z PCPlus4 [31:0] $end
$var wire 32 [ PCNext [31:0] $end
$var wire 32 \ PC [31:0] $end
$var wire 32 ] ALUResult [31:0] $end
$scope module ImmExt $end
$var wire 2 ^ ImmSrc [1:0] $end
$var wire 25 _ in [31:7] $end
$var wire 12 ` immS [11:0] $end
$var wire 21 a immJ [20:0] $end
$var wire 12 b immI [11:0] $end
$var wire 13 c immB [12:0] $end
$var wire 32 d ImmExt [31:0] $end
$upscope $end
$scope module PC_Next_Reg $end
$var wire 1 $ clk $end
$var wire 1 % rst_n $end
$var wire 32 e q [31:0] $end
$var wire 32 f d [31:0] $end
$var parameter 32 g WIDTH $end
$var reg 32 h q_reg [31:0] $end
$upscope $end
$scope module alu $end
$var wire 4 i ALUControl [3:0] $end
$var wire 5 j shamt [4:0] $end
$var wire 32 k b [31:0] $end
$var wire 32 l a [31:0] $end
$var wire 1 2 Zero $end
$var reg 32 m y [31:0] $end
$upscope $end
$scope module mux_PCNext $end
$var wire 1 6 s $end
$var wire 32 n y [31:0] $end
$var wire 32 o b [31:0] $end
$var wire 32 p a [31:0] $end
$upscope $end
$scope module mux_PCPlus4 $end
$var wire 32 q a [31:0] $end
$var wire 32 r b [31:0] $end
$var wire 32 s y [31:0] $end
$upscope $end
$scope module mux_PCTarget $end
$var wire 32 t a [31:0] $end
$var wire 32 u b [31:0] $end
$var wire 32 v y [31:0] $end
$upscope $end
$scope module mux_Result $end
$var wire 32 w a [31:0] $end
$var wire 32 x b [31:0] $end
$var wire 32 y c [31:0] $end
$var wire 2 z s [1:0] $end
$var wire 32 { y [31:0] $end
$upscope $end
$scope module mux_SrcB $end
$var wire 32 | b [31:0] $end
$var wire 1 9 s $end
$var wire 32 } y [31:0] $end
$var wire 32 ~ a [31:0] $end
$upscope $end
$scope module rf $end
$var wire 1 5 RegWrite $end
$var wire 5 !" a1 [4:0] $end
$var wire 5 "" a2 [4:0] $end
$var wire 5 #" a3 [4:0] $end
$var wire 1 $ clk $end
$var wire 32 $" wd3 [31:0] $end
$var wire 32 %" rd2 [31:0] $end
$var wire 32 &" rd1 [31:0] $end
$upscope $end
$upscope $end
$upscope $end
$upscope $end
$upscope $end
$scope module rv32i_sc_tb $end
$scope module dut $end
$scope module rvsingle $end
$scope module dp $end
$scope module rf $end
$upscope $end
$upscope $end
$upscope $end
$upscope $end
$upscope $end
$enddefinitions $end
$comment Show the parameter values. $end
$dumpall
b100000 g
$end
#0
$dumpvars
b0 &"
bx %"
b1000 $"
b1 #"
b1000 ""
b0 !"
bx ~
b1000 }
b1000 |
b1000 {
b0 z
b100 y
bx x
b1000 w
b1000 v
b1000 u
b0 t
b100 s
b100 r
b0 q
b100 p
b1000 o
b100 n
b1000 m
b0 l
b1000 k
b1000 j
b0 i
b0 h
b100 f
b0 e
b1000 d
b100000000000 c
b1000 b
b1000 a
b1 `
b10000000000000001 _
b0 ^
b1000 ]
b0 \
b100 [
b100 Z
b1000 Y
b1000 X
b0 W
b1000 V
bx U
b1000 T
b100000000000000010010011 S
b0 R
bx Q
b0 P
b0 O
b0 N
b0 M
b10 L
b10011 K
b0 J
b10 I
b0 H
0G
b0 F
b0 E
b10 D
0C
b0 B
0A
b0 @
b10011 ?
0>
b0 =
0<
b0 ;
b1000 :
19
b0 8
b0 7
06
15
b0 4
bx 3
02
b100000000000000010010011 1
bx 0
b0 /
b100000000000000010010011 .
b1000 -
bx ,
bx +
b1000 *
b100000000000000010010011 )
b0 (
bx '
bx &
0%
1$
b1000 #
0"
bx !
$end
#5
0$
#10
1$
#15
0$
#20
1$
#22
1%
#25
0$
#30
b1 X
b1 {
b1 $"
b1 j
b1 #
b1 *
b1 -
b1 :
b1 ]
b1 m
b1 w
b1 V
b1 k
b1 }
b1 T
b1 d
b1 u
b1 |
b1 b
b10 `
b10 c
b100000000000 a
b1000 !
b1000 &
b1000 ,
b1000 3
b1000 U
b1000 ~
b1000 %"
b10000000000010 _
b1 ""
b10 #"
b1000 [
b1000 f
b1000 n
b100000000000100010011 )
b100000000000100010011 .
b100000000000100010011 1
b100000000000100010011 S
b1000 Z
b1000 p
b1000 s
b1000 y
b101 Y
b101 o
b101 v
b100 (
b100 /
b100 7
b100 \
b100 e
b100 h
b100 q
b100 t
1$
#35
0$
#40
b11111111111111111111111111111000 X
b11111111111111111111111111111000 {
b11111111111111111111111111111000 $"
b11000 j
b11111111111111111111111111111000 #
b11111111111111111111111111111000 *
b11111111111111111111111111111000 -
b11111111111111111111111111111000 :
b11111111111111111111111111111000 ]
b11111111111111111111111111111000 m
b11111111111111111111111111111000 w
b11111111111111111111111111111000 V
b11111111111111111111111111111000 k
b11111111111111111111111111111000 }
b11111111111111111111111111111000 T
b11111111111111111111111111111000 d
b11111111111111111111111111111000 u
b11111111111111111111111111111000 |
b111111111000 b
b111111100011 `
b1111111100010 c
b100000000011111111000 a
bx !
bx &
bx ,
bx 3
bx U
bx ~
bx %"
b1 H
1>
b1111111110000000000000011 _
b11000 ""
b11 #"
b1100 [
b1100 f
b1100 n
b11111111100000000000000110010011 )
b11111111100000000000000110010011 .
b11111111100000000000000110010011 1
b11111111100000000000000110010011 S
b1100 Z
b1100 p
b1100 s
b1100 y
b0 Y
b0 o
b0 v
b1000 (
b1000 /
b1000 7
b1000 \
b1000 e
b1000 h
b1000 q
b1000 t
1$
#45
0$
#50
b10000 X
b10000 {
b10000 $"
b1 j
b1 V
b1 k
b1 }
1<
b0x00x000000000xx0 T
b0x00x000000000xx0 d
b0x00x000000000xx0 u
b0x00x000000000xx0 |
b10000 #
b10000 *
b10000 -
b10000 :
b10000 ]
b10000 m
b10000 w
1G
bx 8
bx B
bx M
bx P
bx ^
09
b110 ;
b110 E
b110 J
b110 O
b110 i
b10 b
b100 `
b100 c
b1001000000000010 a
b1000 W
b1000 l
b1000 &"
b1 !
b1 &
b1 ,
b1 3
b1 U
b1 ~
b1 %"
b110011 ?
b110011 K
b1 =
b1 F
b10 H
0>
b100000100100100 _
b1 !"
b10 ""
b100 #"
b10000 [
b10000 f
b10000 n
b1000001001001000110011 )
b1000001001001000110011 .
b1000001001001000110011 1
b1000001001001000110011 S
b10000 Z
b10000 p
b10000 s
b10000 y
bx Y
bx o
bx v
b1100 (
b1100 /
b1100 7
b1100 \
b1100 e
b1100 h
b1100 q
b1100 t
1$
#55
0$
#60
b100 X
b100 {
b100 $"
b0xx0xx00000000xxx T
b0xx0xx00000000xxx d
b0xx0xx00000000xxx u
b0xx0xx00000000xxx |
b100 #
b100 *
b100 -
b100 :
b100 ]
b100 m
b100 w
b111 ;
b111 E
b111 J
b111 O
b111 i
b101 `
b100000000100 c
b1101000000000010 a
b101 =
b101 F
b100000110100101 _
b101 #"
b10100 [
b10100 f
b10100 n
b1000001101001010110011 )
b1000001101001010110011 .
b1000001101001010110011 1
b1000001101001010110011 S
b10100 Z
b10100 p
b10100 s
b10100 y
b10000 (
b10000 /
b10000 7
b10000 \
b10000 e
b10000 h
b10000 q
b10000 t
1$
#65
0$
#70
b11111111111111111111111111111100 X
b11111111111111111111111111111100 {
b11111111111111111111111111111100 $"
b0xxx0x010000000x10 T
b0xxx0x010000000x10 d
b0xxx0x010000000x10 u
b0xxx0x010000000x10 |
b11111111111111111111111111111100 #
b11111111111111111111111111111100 *
b11111111111111111111111111111100 -
b11111111111111111111111111111100 :
b11111111111111111111111111111100 ]
b11111111111111111111111111111100 m
b11111111111111111111111111111100 w
b1000 ;
b1000 E
b1000 J
b1000 O
b1000 i
b10000000010 b
b10000000110 `
b10000000110 c
b11101010000000010 a
b11111111111111111111111111111000 W
b11111111111111111111111111111000 l
b11111111111111111111111111111000 &"
b11 H
1>
b100000000100001110100110 _
b11 !"
b110 #"
b11000 [
b11000 f
b11000 n
b1000000001000011101001100110011 )
b1000000001000011101001100110011 .
b1000000001000011101001100110011 1
b1000000001000011101001100110011 S
b11000 Z
b11000 p
b11000 s
b11000 y
b10100 (
b10100 /
b10100 7
b10100 \
b10100 e
b10100 h
b10100 q
b10100 t
1$
#75
0$
#80
bx X
bx {
bx $"
16
b100 j
b100000 Y
b100000 o
b100000 v
b1000 T
b1000 d
b1000 u
b1000 |
b1100 #
b1100 *
b1100 -
b1100 :
b1100 ]
b1100 m
b1100 w
b100 V
b100 k
b100 }
05
b10 8
b10 B
b10 M
b10 P
b10 ^
bx 4
bx @
bx N
bx R
bx z
1C
b1 D
b1 I
b1 L
b1 ;
b1 E
b1 J
b1 O
b1 i
b101 b
b1000 `
b1000 c
b100001100000000100 a
b10000 W
b10000 l
b10000 &"
b100 !
b100 &
b100 ,
b100 3
b100 U
b100 ~
b100 %"
b1100011 ?
b1100011 K
b1 =
b1 F
b10 H
0>
b1010010000101000 _
b100 !"
b101 ""
b1000 #"
b100000 [
b100000 f
b100000 n
b10100100001010001100011 )
b10100100001010001100011 .
b10100100001010001100011 1
b10100100001010001100011 S
b11100 Z
b11100 p
b11100 s
b11100 y
b11000 (
b11000 /
b11000 7
b11000 \
b11000 e
b11000 h
b11000 q
b11000 t
1$
#85
0$
#90
b10 X
b10 {
b10 $"
06
b10 j
b10 T
b10 d
b10 u
b10 |
b0 ;
b0 E
b0 J
b0 O
b0 i
0<
b10 #
b10 *
b10 -
b10 :
b10 ]
b10 m
b10 w
b10 V
b10 k
b10 }
b0 H
0G
15
b0 8
b0 B
b0 M
b0 P
b0 ^
19
b0 4
b0 @
b0 N
b0 R
b0 z
0C
b10 D
b10 I
b10 L
b10 b
b111 `
b100000000110 c
b10 a
b0 W
b0 l
b0 &"
b1 !
b1 &
b1 ,
b1 3
b1 U
b1 ~
b1 %"
b10011 ?
b10011 K
b0 =
b0 F
b100000000000111 _
b0 !"
b10 ""
b111 #"
b100100 [
b100100 f
b100100 n
b1000000000001110010011 )
b1000000000001110010011 .
b1000000000001110010011 1
b1000000000001110010011 S
b100100 Z
b100100 p
b100100 s
b100100 y
b100010 Y
b100010 o
b100010 v
b100000 (
b100000 /
b100000 7
b100000 \
b100000 e
b100000 h
b100000 q
b100000 t
1$
#95
0$
#100
1<
b0 T
b0 d
b0 u
b0 |
b0 j
12
b0 #
b0 *
b0 -
b0 :
b0 ]
b0 m
b0 w
b101000 X
b101000 {
b101000 $"
b0 V
b0 k
b0 }
16
b10 H
1G
b11 8
b11 B
b11 M
b11 P
b11 ^
x9
b10 4
b10 @
b10 N
b10 R
b10 z
bx D
bx I
bx L
1A
b0 b
b0 `
b0 c
b0 a
b0 !
b0 &
b0 ,
b0 3
b0 U
b0 ~
b0 %"
b1101111 ?
b1101111 K
b0 _
b0 ""
b0 #"
b100100 [
b100100 f
b100100 n
b1101111 )
b1101111 .
b1101111 1
b1101111 S
b101000 Z
b101000 p
b101000 s
b101000 y
b100100 Y
b100100 o
b100100 v
b100100 (
b100100 /
b100100 7
b100100 \
b100100 e
b100100 h
b100100 q
b100100 t
1$
