rv32i_sc_tb.vcd
$date
	Thu Oct 02 13:43:39 2025
$end
$version
	Icarus Verilog
$end
$timescale
	1s
$end
$scope module rv32i_sc_tb $end
$var wire 32 ! WriteData [31:0] $end
$var wire 1 " MemWrite $end
$var wire 32 # DataAdr [31:0] $end
$var reg 1 $ clk $end
$var reg 1 % reset $end
$scope module dut $end
$var wire 1 $ clk $end
$var wire 1 % rst_n $end
$var wire 32 & WriteData [31:0] $end
$var wire 32 ' ReadData [31:0] $end
$var wire 32 ( PC [31:0] $end
$var wire 1 " MemWrite $end
$var wire 32 ) Instr [31:0] $end
$var wire 32 * DataAdr [31:0] $end
$scope module dmem $end
$var wire 1 $ clk $end
$var wire 32 + rd [31:0] $end
$var wire 1 " we $end
$var wire 32 , wd [31:0] $end
$var wire 32 - a [31:0] $end
$upscope $end
$scope module imem $end
$var wire 32 . rd [31:0] $end
$var wire 32 / a [31:0] $end
$upscope $end
$scope module rvsingle $end
$var wire 32 0 ReadData [31:0] $end
$var wire 1 $ clk $end
$var wire 32 1 instr [31:0] $end
$var wire 1 % rst_n $end
$var wire 1 2 Zero $end
$var wire 32 3 WriteData [31:0] $end
$var wire 2 4 ResultSrc [1:0] $end
$var wire 1 5 RegWrite $end
$var wire 1 6 PCSrc $end
$var wire 32 7 PC [31:0] $end
$var wire 1 8 NEGU $end
$var wire 1 9 NEG $end
$var wire 1 " MemWrite $end
$var wire 3 : LoadExtSrc [2:0] $end
$var wire 3 ; ImmSrc [2:0] $end
$var wire 1 < ALUSrc $end
$var wire 32 = ALUResult [31:0] $end
$var wire 4 > ALUControl [3:0] $end
$scope module c $end
$var wire 3 ? LoadExtSrc [2:0] $end
$var wire 1 6 PCSrc $end
$var wire 3 @ funct3 [2:0] $end
$var wire 1 A funct7_5 $end
$var wire 7 B opcode [6:0] $end
$var wire 1 2 Zero $end
$var wire 2 C ResultSrc [1:0] $end
$var wire 1 5 RegWrite $end
$var wire 1 8 NEGU $end
$var wire 1 9 NEG $end
$var wire 1 " MemWrite $end
$var wire 1 D Jump $end
$var wire 3 E ImmSrc [2:0] $end
$var wire 1 F Branch_Taken $end
$var wire 1 G Branch $end
$var wire 1 < ALUSrc $end
$var wire 2 H ALUOp [1:0] $end
$var wire 4 I ALUControl [3:0] $end
$scope module ad $end
$var wire 3 J funct3 [2:0] $end
$var wire 1 A funct7_5 $end
$var wire 1 K op5 $end
$var wire 2 L op5func7_5_concat [1:0] $end
$var wire 2 M ALUOp [1:0] $end
$var reg 4 N ALUControl [3:0] $end
$upscope $end
$scope module bl $end
$var wire 3 O funct3 [2:0] $end
$var wire 1 P funct3_lsb $end
$var wire 1 2 Zero $end
$var wire 1 8 NEGU $end
$var wire 1 9 NEG $end
$var reg 1 F Branch_Taken $end
$upscope $end
$scope module md $end
$var wire 7 Q opcode [6:0] $end
$var reg 2 R ALUOp [1:0] $end
$var reg 1 < ALUSrc $end
$var reg 1 G Branch $end
$var reg 3 S ImmSrc [2:0] $end
$var reg 1 D Jump $end
$var reg 1 " MemWrite $end
$var reg 1 5 RegWrite $end
$var reg 2 T ResultSrc [1:0] $end
$upscope $end
$upscope $end
$scope module dp $end
$var wire 4 U ALUControl [3:0] $end
$var wire 1 < ALUSrc $end
$var wire 3 V ImmSrc [2:0] $end
$var wire 3 W LoadExtSrc [2:0] $end
$var wire 1 6 PCSrc $end
$var wire 32 X ReadData [31:0] $end
$var wire 1 5 RegWrite $end
$var wire 2 Y ResultSrc [1:0] $end
$var wire 1 $ clk $end
$var wire 32 Z instr [31:0] $end
$var wire 1 % rst_n $end
$var wire 32 [ immext [31:0] $end
$var wire 1 2 Zero $end
$var wire 32 \ WriteData [31:0] $end
$var wire 32 ] SrcB [31:0] $end
$var wire 32 ^ SrcA [31:0] $end
$var wire 32 _ Result [31:0] $end
$var wire 32 ` PCTarget [31:0] $end
$var wire 32 a PCPlus4 [31:0] $end
$var wire 32 b PCNext [31:0] $end
$var wire 32 c PC [31:0] $end
$var wire 1 8 NEGU $end
$var wire 1 9 NEG $end
$var wire 32 d DataExt [31:0] $end
$var wire 32 e ALUResult [31:0] $end
$scope module ImmExt $end
$var wire 3 f ImmSrc [2:0] $end
$var wire 25 g in [31:7] $end
$var wire 20 h immU [19:0] $end
$var wire 12 i immS [11:0] $end
$var wire 21 j immJ [20:0] $end
$var wire 12 k immI [11:0] $end
$var wire 13 l immB [12:0] $end
$var wire 32 m ImmExt [31:0] $end
$upscope $end
$scope module PC_Next_Reg $end
$var wire 1 $ clk $end
$var wire 1 % rst_n $end
$var wire 32 n q [31:0] $end
$var wire 32 o d [31:0] $end
$var parameter 32 p WIDTH $end
$var reg 32 q q_reg [31:0] $end
$upscope $end
$scope module alu $end
$var wire 4 r ALUControl [3:0] $end
$var wire 1 s C $end
$var wire 1 9 NEG $end
$var wire 1 8 NEGU $end
$var wire 1 t V $end
$var wire 32 u b_eff [31:0] $end
$var wire 33 v sum33 [32:0] $end
$var wire 32 w sum [31:0] $end
$var wire 5 x shamt [4:0] $end
$var wire 32 y low_sum32 [31:0] $end
$var wire 1 z cin $end
$var wire 1 { c_out $end
$var wire 1 | c_in31 $end
$var wire 32 } b [31:0] $end
$var wire 32 ~ a [31:0] $end
$var wire 1 2 Zero $end
$var wire 1 !" N $end
$var reg 32 "" y [31:0] $end
$upscope $end
$scope module le $end
$var wire 32 #" LW_out [31:0] $end
$var wire 3 $" LoadExtSrc [2:0] $end
$var wire 32 %" ReadData [31:0] $end
$var wire 2 &" offset [1:0] $end
$var wire 16 '" half_sel [15:0] $end
$var wire 8 (" byte_sel [7:0] $end
$var wire 32 )" LH_out [31:0] $end
$var wire 32 *" LHU_out [31:0] $end
$var wire 32 +" LB_out [31:0] $end
$var wire 32 ," LBU_out [31:0] $end
$var wire 32 -" DataExt [31:0] $end
$upscope $end
$scope module mux_PCNext $end
$var wire 1 6 s $end
$var wire 32 ." y [31:0] $end
$var wire 32 /" b [31:0] $end
$var wire 32 0" a [31:0] $end
$upscope $end
$scope module mux_PCPlus4 $end
$var wire 32 1" a [31:0] $end
$var wire 32 2" b [31:0] $end
$var wire 32 3" y [31:0] $end
$upscope $end
$scope module mux_PCTarget $end
$var wire 32 4" a [31:0] $end
$var wire 32 5" b [31:0] $end
$var wire 32 6" y [31:0] $end
$upscope $end
$scope module mux_Result $end
$var wire 32 7" a [31:0] $end
$var wire 32 8" b [31:0] $end
$var wire 32 9" c [31:0] $end
$var wire 32 :" d [31:0] $end
$var wire 2 ;" s [1:0] $end
$var wire 32 <" y [31:0] $end
$upscope $end
$scope module mux_SrcB $end
$var wire 32 =" b [31:0] $end
$var wire 1 < s $end
$var wire 32 >" y [31:0] $end
$var wire 32 ?" a [31:0] $end
$upscope $end
$scope module rf $end
$var wire 1 5 RegWrite $end
$var wire 5 @" a1 [4:0] $end
$var wire 5 A" a2 [4:0] $end
$var wire 5 B" a3 [4:0] $end
$var wire 1 $ clk $end
$var wire 32 C" wd3 [31:0] $end
$var wire 32 D" rd2 [31:0] $end
$var wire 32 E" rd1 [31:0] $end
$upscope $end
$upscope $end
$upscope $end
$upscope $end
$upscope $end
$scope module rv32i_sc_tb $end
$scope module dut $end
$scope module rvsingle $end
$scope module dp $end
$scope module rf $end
$upscope $end
$upscope $end
$upscope $end
$upscope $end
$upscope $end
$enddefinitions $end
$comment Show the parameter values. $end
$dumpall
b100000 p
$end
#0
$dumpvars
b0 E"
bx D"
b101 C"
b1 B"
b101 A"
b0 @"
bx ?"
b101 >"
b101 ="
b101 <"
b0 ;"
b101 :"
b100 9"
bx 8"
b101 7"
b101 6"
b101 5"
b0 4"
b100 3"
b100 2"
b0 1"
b100 0"
b101 /"
b100 ."
bx -"
b0xxxxxxxx ,"
bx +"
b0xxxxxxxxxxxxxxxx *"
bx )"
bx ("
bx '"
b1 &"
bx %"
b0 $"
bx #"
b101 ""
0!"
b0 ~
b101 }
0|
0{
0z
bz0000000000000000000000000000101 y
b101 x
b101 w
b101 v
b101 u
0t
0s
b0 r
b0 q
b100 o
b0 n
b101 m
b100000000000 l
b101 k
b100000000100 j
b1 i
b10100000000 h
b1010000000000001 g
b0 f
b101 e
bx d
b0 c
b100 b
b100 a
b101 `
b101 _
b0 ^
b101 ]
bx \
b101 [
b10100000000000010010011 Z
b0 Y
bx X
b0 W
b0 V
b0 U
b0 T
b0 S
b10 R
b10011 Q
0P
b0 O
b0 N
b10 M
b0 L
0K
b0 J
b0 I
b10 H
0G
0F
b0 E
0D
b0 C
b10011 B
0A
b0 @
b0 ?
b0 >
b101 =
1<
b0 ;
b0 :
09
18
b0 7
06
15
b0 4
bx 3
02
b10100000000000010010011 1
bx 0
b0 /
b10100000000000010010011 .
b101 -
bx ,
bx +
b101 *
b10100000000000010010011 )
b0 (
bx '
bx &
0%
1$
b101 #
0"
bx !
$end
#5
0$
#10
1$
#15
0$
#20
1$
#22
1%
#25
0$
#30
b100 _
b100 <"
b100 C"
b0 &"
bz0000000000000000000000000000100 y
b100 #
b100 *
b100 -
b100 =
b100 e
b100 ""
b100 7"
b100 w
b100 x
b100 v
b100 u
b100 ]
b100 }
b100 >"
b100 [
b100 m
b100 5"
b100 :"
b100 ="
b100 k
b10 i
b10 l
b100 j
b10000000000 h
b1000000000000010 g
b100 A"
b10 B"
b1000 b
b1000 o
b1000 ."
b10000000000000100010011 )
b10000000000000100010011 .
b10000000000000100010011 1
b10000000000000100010011 Z
b1000 a
b1000 0"
b1000 3"
b1000 9"
b1000 `
b1000 /"
b1000 6"
b100 (
b100 /
b100 7
b100 c
b100 n
b100 q
b100 1"
b100 4"
1$
#35
0$
#40
08
1|
1s
1{
b11111111111111111111111111111011 u
b1 &"
1z
bz0000000000000000000000000000001 y
b1 #
b1 *
b1 -
b1 =
b1 e
b1 ""
b1 7"
bx _
bx <"
bx C"
b1 >
b1 I
b1 N
b1 U
b1 r
b1000 [
b1000 m
b1000 5"
b1000 :"
b1000 ="
b1 w
b10 L
1K
05
b10 ;
b10 E
b10 S
b10 V
b10 f
0<
bx 4
bx C
bx T
bx Y
bx ;"
1G
b1 H
b1 M
b1 R
b10 k
b1000 i
b1000 l
b1000000000000010 j
b1000001000 h
b100000000000000000000000000000001 v
b101 ^
b101 ~
b101 E"
b100 !
b100 &
b100 ,
b100 3
b100 \
b100 ?"
b100 D"
b1100011 B
b1100011 Q
b100000100001000 g
b1 @"
b10 A"
b1000 B"
b1100 b
b1100 o
b1100 ."
b1000001000010001100011 )
b1000001000010001100011 .
b1000001000010001100011 1
b1000001000010001100011 Z
b1100 a
b1100 0"
b1100 3"
b1100 9"
b10000 `
b10000 /"
b10000 6"
b1000 (
b1000 /
b1000 7
b1000 c
b1000 n
b1000 q
b1000 1"
b1000 4"
1$
#45
0$
#50
09
b1 &"
0z
bz0000000000000000000000000010001 y
0|
0!"
b10001 #
b10001 *
b10001 -
b10001 =
b10001 e
b10001 ""
b10001 7"
18
0t
b10001 x
b10001 u
b10001 [
b10001 m
b10001 5"
b10001 :"
b10001 ="
b10001 _
b10001 <"
b10001 C"
b0 >
b0 I
b0 N
b0 U
b0 r
b10001 w
0s
0{
b10001 ]
b10001 }
b10001 >"
b0 L
0K
15
b0 ;
b0 E
b0 S
b0 V
b0 f
1<
b0 4
b0 C
b0 T
b0 Y
b0 ;"
0G
b10 H
b10 M
b10 R
b10001 k
b11 i
b100000000010 l
b100000010000 j
b1000100000000 h
b10001 v
b0 ^
b0 ~
b0 E"
bx !
bx &
bx ,
bx 3
bx \
bx ?"
bx D"
b10011 B
b10011 Q
b100010000000000011 g
b0 @"
b10001 A"
b11 B"
b10000 b
b10000 o
b10000 ."
b1000100000000000110010011 )
b1000100000000000110010011 .
b1000100000000000110010011 1
b1000100000000000110010011 Z
b10000 a
b10000 0"
b10000 3"
b10000 9"
b11101 `
b11101 /"
b11101 6"
b1100 (
b1100 /
b1100 7
b1100 c
b1100 n
b1100 q
b1100 1"
b1100 4"
1$
#55
0$
#60
b100010 _
b100010 <"
b100010 C"
b10 &"
bz0000000000000000000000000100010 y
b100010 #
b100010 *
b100010 -
b100010 =
b100010 e
b100010 ""
b100010 7"
b100010 w
b10 x
b100010 v
b100010 u
b100010 ]
b100010 }
b100010 >"
b100010 [
b100010 m
b100010 5"
b100010 :"
b100010 ="
b100010 k
b100100 i
b100100 l
b100010 j
b10001000000000 h
b100 !
b100 &
b100 ,
b100 3
b100 \
b100 ?"
b100 D"
b1000100000000000100 g
b10 A"
b100 B"
b10100 b
b10100 o
b10100 ."
b10001000000000001000010011 )
b10001000000000001000010011 .
b10001000000000001000010011 1
b10001000000000001000010011 Z
b10100 a
b10100 0"
b10100 3"
b10100 9"
b110010 `
b110010 /"
b110010 6"
b10000 (
b10000 /
b10000 7
b10000 c
b10000 n
b10000 q
b10000 1"
b10000 4"
1$
#65
0$
#70
b111 _
b111 <"
b111 C"
b11 &"
bz0000000000000000000000000000111 y
b111 #
b111 *
b111 -
b111 =
b111 e
b111 ""
b111 7"
b111 w
b111 x
b111 v
b111 u
b111 ]
b111 }
b111 >"
b111 [
b111 m
b111 5"
b111 :"
b111 ="
b111 k
b1 i
b100000000000 l
b100000000110 j
b11100000000 h
bx !
bx &
bx ,
bx 3
bx \
bx ?"
bx D"
b1110000000000001 g
b111 A"
b1 B"
b11000 b
b11000 o
b11000 ."
b11100000000000010010011 )
b11100000000000010010011 .
b11100000000000010010011 1
b11100000000000010010011 Z
b11000 a
b11000 0"
b11000 3"
b11000 9"
b11011 `
b11011 /"
b11011 6"
b10100 (
b10100 /
b10100 7
b10100 c
b10100 n
b10100 q
b10100 1"
b10100 4"
1$
#75
0$
#80
b10 i
b10 l
b1110000000000010 g
b10 B"
b11100 b
b11100 o
b11100 ."
b11100000000000100010011 )
b11100000000000100010011 .
b11100000000000100010011 1
b11100000000000100010011 Z
b11100 a
b11100 0"
b11100 3"
b11100 9"
b11111 `
b11111 /"
b11111 6"
b11000 (
b11000 /
b11000 7
b11000 c
b11000 n
b11000 q
b11000 1"
b11000 4"
1$
#85
0$
#90
08
1|
12
1s
1{
b11111111111111111111111111111000 u
1z
06
bz0000000000000000000000000000000 y
b0 &"
bx _
bx <"
bx C"
b1000 [
b1000 m
b1000 5"
b1000 :"
b1000 ="
b0 w
b0 #
b0 *
b0 -
b0 =
b0 e
b0 ""
b0 7"
b10 L
1K
05
b10 ;
b10 E
b10 S
b10 V
b10 f
0<
bx 4
bx C
bx T
bx Y
bx ;"
1G
b1 H
b1 M
b1 R
b1 >
b1 I
b1 N
b1 U
b1 r
0F
1P
b10 k
b1000 i
b1000 l
b1001000000000010 j
b1000001001 h
b100000000000000000000000000000000 v
b111 ^
b111 ~
b111 E"
b111 !
b111 &
b111 ,
b111 3
b111 \
b111 ?"
b111 D"
b1100011 B
b1100011 Q
b1 :
b1 ?
b1 W
b1 $"
b1 @
b1 J
b1 O
b100000100101000 g
b1 @"
b10 A"
b1000 B"
b100000 b
b100000 o
b100000 ."
b1000001001010001100011 )
b1000001001010001100011 .
b1000001001010001100011 1
b1000001001010001100011 Z
b100000 a
b100000 0"
b100000 3"
b100000 9"
b100100 `
b100100 /"
b100100 6"
b11100 (
b11100 /
b11100 7
b11100 c
b11100 n
b11100 q
b11100 1"
b11100 4"
1$
#95
0$
#100
09
b11 &"
0z
bz0000000000000000000000000110011 y
0|
0!"
b110011 #
b110011 *
b110011 -
b110011 =
b110011 e
b110011 ""
b110011 7"
18
0t
b10011 x
b110011 u
b110011 [
b110011 m
b110011 5"
b110011 :"
b110011 ="
b110011 _
b110011 <"
b110011 C"
b0 >
b0 I
b0 N
b0 U
b0 r
02
b110011 w
0s
0{
b110011 ]
b110011 }
b110011 >"
b0 L
0K
15
b0 ;
b0 E
b0 S
b0 V
b0 f
1<
b0 4
b0 C
b0 T
b0 Y
b0 ;"
0G
b10 H
b10 M
b10 R
0F
0P
b110011 k
b100011 i
b100000100010 l
b100000110010 j
b11001100000000 h
b110011 v
b0 ^
b0 ~
b0 E"
bx !
bx &
bx ,
bx 3
bx \
bx ?"
bx D"
b10011 B
b10011 Q
b0 :
b0 ?
b0 W
b0 $"
b0 @
b0 J
b0 O
b1100110000000000011 g
b0 @"
b10011 A"
b11 B"
b100100 b
b100100 o
b100100 ."
b11001100000000000110010011 )
b11001100000000000110010011 .
b11001100000000000110010011 1
b11001100000000000110010011 Z
b100100 a
b100100 0"
b100100 3"
b100100 9"
b1010011 `
b1010011 /"
b1010011 6"
b100000 (
b100000 /
b100000 7
b100000 c
b100000 n
b100000 q
b100000 1"
b100000 4"
1$
#105
0$
#110
b1000100 _
b1000100 <"
b1000100 C"
b0 &"
bz0000000000000000000000001000100 y
b1000100 #
b1000100 *
b1000100 -
b1000100 =
b1000100 e
b1000100 ""
b1000100 7"
b1000100 w
b100 x
b1000100 v
b1000100 u
b1000100 ]
b1000100 }
b1000100 >"
b1000100 [
b1000100 m
b1000100 5"
b1000100 :"
b1000100 ="
b1000100 k
b1000100 i
b1000100 l
b1000100 j
b100010000000000 h
b100010 !
b100010 &
b100010 ,
b100010 3
b100010 \
b100010 ?"
b100010 D"
b10001000000000000100 g
b100 A"
b100 B"
b101000 b
b101000 o
b101000 ."
b100010000000000001000010011 )
b100010000000000001000010011 .
b100010000000000001000010011 1
b100010000000000001000010011 Z
b101000 a
b101000 0"
b101000 3"
b101000 9"
b1101000 `
b1101000 /"
b1101000 6"
b100100 (
b100100 /
b100100 7
b100100 c
b100100 n
b100100 q
b100100 1"
b100100 4"
1$
#115
0$
#120
b10 _
b10 <"
b10 C"
b10 &"
bz0000000000000000000000000000010 y
b10 #
b10 *
b10 -
b10 =
b10 e
b10 ""
b10 7"
b10 w
b10 x
b10 v
b10 u
b10 ]
b10 }
b10 >"
b10 [
b10 m
b10 5"
b10 :"
b10 ="
b10 k
b1 i
b100000000000 l
b10 j
b1000000000 h
b100000000000001 g
b10 A"
b1 B"
b111 !
b111 &
b111 ,
b111 3
b111 \
b111 ?"
b111 D"
b101100 b
b101100 o
b101100 ."
b1000000000000010010011 )
b1000000000000010010011 .
b1000000000000010010011 1
b1000000000000010010011 Z
b101100 a
b101100 0"
b101100 3"
b101100 9"
b101010 `
b101010 /"
b101010 6"
b101000 (
b101000 /
b101000 7
b101000 c
b101000 n
b101000 q
b101000 1"
b101000 4"
1$
#125
0$
#130
b1 _
b1 <"
b1 C"
b1 &"
bz0000000000000000000000000000001 y
b1 #
b1 *
b1 -
b1 =
b1 e
b1 ""
b1 7"
b1 w
b1 x
b1 v
b1 u
b1 ]
b1 }
b1 >"
b1 [
b1 m
b1 5"
b1 :"
b1 ="
b1 k
b10 i
b10 l
b100000000000 j
b100000000 h
b10 !
b10 &
b10 ,
b10 3
b10 \
b10 ?"
b10 D"
b10000000000010 g
b1 A"
b10 B"
b110000 b
b110000 o
b110000 ."
b100000000000100010011 )
b100000000000100010011 .
b100000000000100010011 1
b100000000000100010011 Z
b110000 a
b110000 0"
b110000 3"
b110000 9"
b101101 `
b101101 /"
b101101 6"
b101100 (
b101100 /
b101100 7
b101100 c
b101100 n
b101100 q
b101100 1"
b101100 4"
1$
#135
0$
#140
08
1|
1s
1{
b11111111111111111111111111111110 u
1z
bz0000000000000000000000000000001 y
b1 &"
b0xxxxxxxx _
b0xxxxxxxx <"
b0xxxxxxxx C"
b1000 [
b1000 m
b1000 5"
b1000 :"
b1000 ="
b1 w
b1 #
b1 *
b1 -
b1 =
b1 e
b1 ""
b1 7"
b10 L
1K
05
b10 ;
b10 E
b10 S
b10 V
b10 f
0<
bx 4
bx C
bx T
bx Y
bx ;"
1G
b1 H
b1 M
b1 R
b0xxxxxxxx d
b0xxxxxxxx -"
b0xxxxxxxx 8"
b1 >
b1 I
b1 N
b1 U
b1 r
b10 k
b1000 i
b1000 l
b1100000000000010 j
b1000001100 h
b100000000000000000000000000000001 v
b10 ^
b10 ~
b10 E"
b1 !
b1 &
b1 ,
b1 3
b1 \
b1 ?"
b1 D"
b1100011 B
b1100011 Q
b100 :
b100 ?
b100 W
b100 $"
b100 @
b100 J
b100 O
b100000110001000 g
b1 @"
b10 A"
b1000 B"
b110100 b
b110100 o
b110100 ."
b1000001100010001100011 )
b1000001100010001100011 .
b1000001100010001100011 1
b1000001100010001100011 Z
b110100 a
b110100 0"
b110100 3"
b110100 9"
b111000 `
b111000 /"
b111000 6"
b110000 (
b110000 /
b110000 7
b110000 c
b110000 n
b110000 q
b110000 1"
b110000 4"
1$
#145
0$
#150
09
b1 &"
0z
bz0000000000000000000000001010101 y
0|
0!"
b1010101 #
b1010101 *
b1010101 -
b1010101 =
b1010101 e
b1010101 ""
b1010101 7"
18
0t
b10101 x
b1010101 u
b1010101 [
b1010101 m
b1010101 5"
b1010101 :"
b1010101 ="
b1010101 _
b1010101 <"
b1010101 C"
b0 >
b0 I
b0 N
b0 U
b0 r
b1010101 w
0s
0{
b1010101 ]
b1010101 }
b1010101 >"
b0 L
0K
15
b0 ;
b0 E
b0 S
b0 V
b0 f
1<
b0 4
b0 C
b0 T
b0 Y
b0 ;"
0G
b10 H
b10 M
b10 R
bx d
bx -"
bx 8"
b1010101 k
b1000011 i
b100001000010 l
b100001010100 j
b101010100000000 h
b1010101 v
b0 ^
b0 ~
b0 E"
bx !
bx &
bx ,
bx 3
bx \
bx ?"
bx D"
b10011 B
b10011 Q
b0 :
b0 ?
b0 W
b0 $"
b0 @
b0 J
b0 O
b10101010000000000011 g
b0 @"
b10101 A"
b11 B"
b111000 b
b111000 o
b111000 ."
b101010100000000000110010011 )
b101010100000000000110010011 .
b101010100000000000110010011 1
b101010100000000000110010011 Z
b111000 a
b111000 0"
b111000 3"
b111000 9"
b10001001 `
b10001001 /"
b10001001 6"
b110100 (
b110100 /
b110100 7
b110100 c
b110100 n
b110100 q
b110100 1"
b110100 4"
1$
#155
0$
#160
b1100110 _
b1100110 <"
b1100110 C"
b10 &"
bz0000000000000000000000001100110 y
b1100110 #
b1100110 *
b1100110 -
b1100110 =
b1100110 e
b1100110 ""
b1100110 7"
b1100110 w
b110 x
b1100110 v
b1100110 u
b1100110 ]
b1100110 }
b1100110 >"
b1100110 [
b1100110 m
b1100110 5"
b1100110 :"
b1100110 ="
b1100110 k
b1100100 i
b1100100 l
b1100110 j
b110011000000000 h
b11001100000000000100 g
b110 A"
b100 B"
b111100 b
b111100 o
b111100 ."
b110011000000000001000010011 )
b110011000000000001000010011 .
b110011000000000001000010011 1
b110011000000000001000010011 Z
b111100 a
b111100 0"
b111100 3"
b111100 9"
b10011110 `
b10011110 /"
b10011110 6"
b111000 (
b111000 /
b111000 7
b111000 c
b111000 n
b111000 q
b111000 1"
b111000 4"
1$
#165
0$
#170
b0 _
b0 <"
b0 C"
b0 &"
1F
bz0000000000000000000000000000000 y
b0 #
b0 *
b0 -
b0 =
b0 e
b0 ""
b0 7"
12
b0 w
b0 x
b0 v
b0 u
b0 ]
b0 }
b0 >"
b0 [
b0 m
b0 5"
b0 :"
b0 ="
b0 k
b1 i
b100000000000 l
b0 j
b0 h
b0 !
b0 &
b0 ,
b0 3
b0 \
b0 ?"
b0 D"
b1 g
b0 A"
b1 B"
b1000000 b
b1000000 o
b1000000 ."
b10010011 )
b10010011 .
b10010011 1
b10010011 Z
b1000000 a
b1000000 0"
b1000000 3"
b1000000 9"
b111100 `
b111100 /"
b111100 6"
b111100 (
b111100 /
b111100 7
b111100 c
b111100 n
b111100 q
b111100 1"
b111100 4"
1$
#175
0$
#180
b1 _
b1 <"
b1 C"
b1 &"
0F
bz0000000000000000000000000000001 y
b1 #
b1 *
b1 -
b1 =
b1 e
b1 ""
b1 7"
02
b1 w
b1 x
b1 v
b1 u
b1 ]
b1 }
b1 >"
b1 [
b1 m
b1 5"
b1 :"
b1 ="
b1 k
b10 i
b10 l
b100000000000 j
b100000000 h
b10000000000010 g
b1 A"
b10 B"
b1000100 b
b1000100 o
b1000100 ."
b100000000000100010011 )
b100000000000100010011 .
b100000000000100010011 1
b100000000000100010011 Z
b1000100 a
b1000100 0"
b1000100 3"
b1000100 9"
b1000001 `
b1000001 /"
b1000001 6"
b1000000 (
b1000000 /
b1000000 7
b1000000 c
b1000000 n
b1000000 q
b1000000 1"
b1000000 4"
1$
#185
0$
#190
19
1!"
b11 &"
b11111111111111111111111111111110 u
b11111111111111111111111111111111 w
bz1111111111111111111111111111111 y
06
bx _
bx <"
bx C"
b11111111111111111111111111111111 #
b11111111111111111111111111111111 *
b11111111111111111111111111111111 -
b11111111111111111111111111111111 =
b11111111111111111111111111111111 e
b11111111111111111111111111111111 ""
b11111111111111111111111111111111 7"
b11111111111111111111111111111111 v
1z
b1000 [
b1000 m
b1000 5"
b1000 :"
b1000 ="
b10 L
1K
05
b10 ;
b10 E
b10 S
b10 V
b10 f
0<
bx 4
bx C
bx T
bx Y
bx ;"
1G
b1 H
b1 M
b1 R
b0xxxxxxxxxxxxxxxx d
b0xxxxxxxxxxxxxxxx -"
b0xxxxxxxxxxxxxxxx 8"
b1 >
b1 I
b1 N
b1 U
b1 r
0F
1P
b10 k
b1000 i
b1000 l
b1101000000000010 j
b1000001101 h
b1 !
b1 &
b1 ,
b1 3
b1 \
b1 ?"
b1 D"
b1100011 B
b1100011 Q
b101 :
b101 ?
b101 W
b101 $"
b101 @
b101 J
b101 O
b100000110101000 g
b1 @"
b10 A"
b1000 B"
b1001000 b
b1001000 o
b1001000 ."
b1000001101010001100011 )
b1000001101010001100011 .
b1000001101010001100011 1
b1000001101010001100011 Z
b1001000 a
b1001000 0"
b1001000 3"
b1001000 9"
b1001100 `
b1001100 /"
b1001100 6"
b1000100 (
b1000100 /
b1000100 7
b1000100 c
b1000100 n
b1000100 q
b1000100 1"
b1000100 4"
1$
#195
0$
#200
09
0!"
bz0000000000000000000000001110111 y
b1110111 #
b1110111 *
b1110111 -
b1110111 =
b1110111 e
b1110111 ""
b1110111 7"
b1110111 w
0z
b10111 x
b1110111 v
b1110111 u
b1110111 [
b1110111 m
b1110111 5"
b1110111 :"
b1110111 ="
b1110111 _
b1110111 <"
b1110111 C"
b0 >
b0 I
b0 N
b0 U
b0 r
b1110111 ]
b1110111 }
b1110111 >"
b0 L
0K
15
b0 ;
b0 E
b0 S
b0 V
b0 f
1<
b0 4
b0 C
b0 T
b0 Y
b0 ;"
0G
b10 H
b10 M
b10 R
bx d
bx -"
bx 8"
0P
b1110111 k
b1100011 i
b100001100010 l
b100001110110 j
b111011100000000 h
bx !
bx &
bx ,
bx 3
bx \
bx ?"
bx D"
b10011 B
b10011 Q
b0 :
b0 ?
b0 W
b0 $"
b0 @
b0 J
b0 O
b11101110000000000011 g
b0 @"
b10111 A"
b11 B"
b1001100 b
b1001100 o
b1001100 ."
b111011100000000000110010011 )
b111011100000000000110010011 .
b111011100000000000110010011 1
b111011100000000000110010011 Z
b1001100 a
b1001100 0"
b1001100 3"
b1001100 9"
b10111111 `
b10111111 /"
b10111111 6"
b1001000 (
b1001000 /
b1001000 7
b1001000 c
b1001000 n
b1001000 q
b1001000 1"
b1001000 4"
1$
#205
0$
#210
b10001000 _
b10001000 <"
b10001000 C"
b0 &"
bz0000000000000000000000010001000 y
b10001000 #
b10001000 *
b10001000 -
b10001000 =
b10001000 e
b10001000 ""
b10001000 7"
b10001000 w
b1000 x
b10001000 v
b10001000 u
b10001000 ]
b10001000 }
b10001000 >"
b10001000 [
b10001000 m
b10001000 5"
b10001000 :"
b10001000 ="
b10001000 k
b10000100 i
b10000100 l
b10001000 j
b1000100000000000 h
b100010000000000000100 g
b1000 A"
b100 B"
b1010000 b
b1010000 o
b1010000 ."
b1000100000000000001000010011 )
b1000100000000000001000010011 .
b1000100000000000001000010011 1
b1000100000000000001000010011 Z
b1010000 a
b1010000 0"
b1010000 3"
b1010000 9"
b11010100 `
b11010100 /"
b11010100 6"
b1001100 (
b1001100 /
b1001100 7
b1001100 c
b1001100 n
b1001100 q
b1001100 1"
b1001100 4"
1$
#215
0$
#220
19
1!"
b11111111111111111111111111111111 _
b11111111111111111111111111111111 <"
b11111111111111111111111111111111 C"
b11 &"
bz1111111111111111111111111111111 y
b11111111111111111111111111111111 #
b11111111111111111111111111111111 *
b11111111111111111111111111111111 -
b11111111111111111111111111111111 =
b11111111111111111111111111111111 e
b11111111111111111111111111111111 ""
b11111111111111111111111111111111 7"
b11111111111111111111111111111111 w
b11111 x
b11111111111111111111111111111111 v
b11111111111111111111111111111111 u
b11111111111111111111111111111111 ]
b11111111111111111111111111111111 }
b11111111111111111111111111111111 >"
b11111111111111111111111111111111 [
b11111111111111111111111111111111 m
b11111111111111111111111111111111 5"
b11111111111111111111111111111111 :"
b11111111111111111111111111111111 ="
b111111111111 k
b111111100001 i
b1111111100000 l
b100000000111111111110 j
b11111111111100000000 h
b1 L
1A
b1111111111110000000000001 g
b11111 A"
b1 B"
b1010100 b
b1010100 o
b1010100 ."
b11111111111100000000000010010011 )
b11111111111100000000000010010011 .
b11111111111100000000000010010011 1
b11111111111100000000000010010011 Z
b1010100 a
b1010100 0"
b1010100 3"
b1010100 9"
b1001111 `
b1001111 /"
b1001111 6"
b1010000 (
b1010000 /
b1010000 7
b1010000 c
b1010000 n
b1010000 q
b1010000 1"
b1010000 4"
1$
#225
0$
