rv32i_sc_tb.vcd
$date
	Sun Sep 28 13:25:05 2025
$end
$version
	Icarus Verilog
$end
$timescale
	1s
$end
$scope module rv32i_sc_tb $end
$var wire 32 ! WriteData [31:0] $end
$var wire 1 " MemWrite $end
$var wire 32 # DataAdr [31:0] $end
$var reg 1 $ clk $end
$var reg 1 % reset $end
$scope module dut $end
$var wire 1 $ clk $end
$var wire 1 % rst_n $end
$var wire 32 & WriteData [31:0] $end
$var wire 32 ' ReadData [31:0] $end
$var wire 32 ( PC [31:0] $end
$var wire 1 " MemWrite $end
$var wire 32 ) Instr [31:0] $end
$var wire 32 * DataAdr [31:0] $end
$scope module dmem $end
$var wire 1 $ clk $end
$var wire 32 + rd [31:0] $end
$var wire 1 " we $end
$var wire 32 , wd [31:0] $end
$var wire 32 - a [31:0] $end
$upscope $end
$scope module imem $end
$var wire 32 . rd [31:0] $end
$var wire 32 / a [31:0] $end
$upscope $end
$scope module rvsingle $end
$var wire 32 0 ReadData [31:0] $end
$var wire 1 $ clk $end
$var wire 32 1 instr [31:0] $end
$var wire 1 % rst_n $end
$var wire 1 2 Zero $end
$var wire 32 3 WriteData [31:0] $end
$var wire 2 4 ResultSrc [1:0] $end
$var wire 1 5 RegWrite $end
$var wire 1 6 PCSrc $end
$var wire 32 7 PC [31:0] $end
$var wire 1 " MemWrite $end
$var wire 3 8 ImmSrc [2:0] $end
$var wire 1 9 ALUSrc $end
$var wire 32 : ALUResult [31:0] $end
$var wire 4 ; ALUControl [3:0] $end
$scope module c $end
$var wire 1 < Branch_Taken $end
$var wire 1 6 PCSrc $end
$var wire 3 = funct3 [2:0] $end
$var wire 1 > funct7_5 $end
$var wire 7 ? opcode [6:0] $end
$var wire 1 2 Zero $end
$var wire 2 @ ResultSrc [1:0] $end
$var wire 1 5 RegWrite $end
$var wire 1 " MemWrite $end
$var wire 1 A Jump $end
$var wire 3 B ImmSrc [2:0] $end
$var wire 1 C Branch $end
$var wire 1 9 ALUSrc $end
$var wire 2 D ALUOp [1:0] $end
$var wire 4 E ALUControl [3:0] $end
$scope module ad $end
$var wire 3 F funct3 [2:0] $end
$var wire 1 > funct7_5 $end
$var wire 1 G op5 $end
$var wire 2 H op5func7_5_concat [1:0] $end
$var wire 2 I ALUOp [1:0] $end
$var reg 4 J ALUControl [3:0] $end
$upscope $end
$scope module md $end
$var wire 7 K opcode [6:0] $end
$var reg 2 L ALUOp [1:0] $end
$var reg 1 9 ALUSrc $end
$var reg 1 C Branch $end
$var reg 3 M ImmSrc [2:0] $end
$var reg 1 A Jump $end
$var reg 1 " MemWrite $end
$var reg 1 5 RegWrite $end
$var reg 2 N ResultSrc [1:0] $end
$upscope $end
$upscope $end
$scope module dp $end
$var wire 4 O ALUControl [3:0] $end
$var wire 1 9 ALUSrc $end
$var wire 3 P ImmSrc [2:0] $end
$var wire 1 6 PCSrc $end
$var wire 32 Q ReadData [31:0] $end
$var wire 1 5 RegWrite $end
$var wire 2 R ResultSrc [1:0] $end
$var wire 1 $ clk $end
$var wire 32 S instr [31:0] $end
$var wire 1 % rst_n $end
$var wire 32 T immext [31:0] $end
$var wire 1 2 Zero $end
$var wire 32 U WriteData [31:0] $end
$var wire 32 V SrcB [31:0] $end
$var wire 32 W SrcA [31:0] $end
$var wire 32 X Result [31:0] $end
$var wire 32 Y PCTarget [31:0] $end
$var wire 32 Z PCPlus4 [31:0] $end
$var wire 32 [ PCNext [31:0] $end
$var wire 32 \ PC [31:0] $end
$var wire 32 ] ALUResult [31:0] $end
$scope module ImmExt $end
$var wire 3 ^ ImmSrc [2:0] $end
$var wire 25 _ in [31:7] $end
$var wire 20 ` immU [19:0] $end
$var wire 12 a immS [11:0] $end
$var wire 21 b immJ [20:0] $end
$var wire 12 c immI [11:0] $end
$var wire 13 d immB [12:0] $end
$var wire 32 e ImmExt [31:0] $end
$upscope $end
$scope module PC_Next_Reg $end
$var wire 1 $ clk $end
$var wire 1 % rst_n $end
$var wire 32 f q [31:0] $end
$var wire 32 g d [31:0] $end
$var parameter 32 h WIDTH $end
$var reg 32 i q_reg [31:0] $end
$upscope $end
$scope module alu $end
$var wire 4 j ALUControl [3:0] $end
$var wire 5 k shamt [4:0] $end
$var wire 32 l b [31:0] $end
$var wire 32 m a [31:0] $end
$var wire 1 2 Zero $end
$var reg 32 n y [31:0] $end
$upscope $end
$scope module mux_PCNext $end
$var wire 1 6 s $end
$var wire 32 o y [31:0] $end
$var wire 32 p b [31:0] $end
$var wire 32 q a [31:0] $end
$upscope $end
$scope module mux_PCPlus4 $end
$var wire 32 r a [31:0] $end
$var wire 32 s b [31:0] $end
$var wire 32 t y [31:0] $end
$upscope $end
$scope module mux_PCTarget $end
$var wire 32 u a [31:0] $end
$var wire 32 v b [31:0] $end
$var wire 32 w y [31:0] $end
$upscope $end
$scope module mux_Result $end
$var wire 32 x a [31:0] $end
$var wire 32 y b [31:0] $end
$var wire 32 z c [31:0] $end
$var wire 32 { d [31:0] $end
$var wire 2 | s [1:0] $end
$var wire 32 } y [31:0] $end
$upscope $end
$scope module mux_SrcB $end
$var wire 32 ~ b [31:0] $end
$var wire 1 9 s $end
$var wire 32 !" y [31:0] $end
$var wire 32 "" a [31:0] $end
$upscope $end
$scope module rf $end
$var wire 1 5 RegWrite $end
$var wire 5 #" a1 [4:0] $end
$var wire 5 $" a2 [4:0] $end
$var wire 5 %" a3 [4:0] $end
$var wire 1 $ clk $end
$var wire 32 &" wd3 [31:0] $end
$var wire 32 '" rd2 [31:0] $end
$var wire 32 (" rd1 [31:0] $end
$upscope $end
$upscope $end
$upscope $end
$upscope $end
$upscope $end
$scope module rv32i_sc_tb $end
$scope module dut $end
$scope module rvsingle $end
$scope module dp $end
$scope module rf $end
$upscope $end
$upscope $end
$upscope $end
$upscope $end
$upscope $end
$enddefinitions $end
$comment Show the parameter values. $end
$dumpall
b100000 h
$end
#0
$dumpvars
bx ("
bx '"
b10010001101000101000000000000 &"
b101 %"
b11 $"
b1000 #"
bx ""
bx !"
b10010001101000101000000000000 ~
b10010001101000101000000000000 }
b11 |
b10010001101000101000000000000 {
b100 z
bx y
bx x
b10010001101000101000000000000 w
b10010001101000101000000000000 v
b0 u
b100 t
b100 s
b0 r
b100 q
b10010001101000101000000000000 p
b100 o
bx n
bx m
bx l
bx k
b111 j
b0 i
b100 g
b0 f
b10010001101000101000000000000 e
b100100100100 d
b100100011 c
b1000101100100100010 b
b100100101 a
b10010001101000101 `
b1001000110100010100101 _
b100 ^
bx ]
b0 \
b100 [
b100 Z
b10010001101000101000000000000 Y
b10010001101000101000000000000 X
bx W
bx V
bx U
b10010001101000101000000000000 T
b10010001101000101001010110111 S
b11 R
bx Q
b100 P
b111 O
b11 N
b100 M
bx L
b110111 K
b111 J
bx I
b10 H
1G
b101 F
b111 E
bx D
0C
b100 B
0A
b11 @
b110111 ?
0>
b101 =
x<
b111 ;
bx :
x9
b100 8
b0 7
06
15
b11 4
bx 3
x2
b10010001101000101001010110111 1
bx 0
b0 /
b10010001101000101001010110111 .
bx -
bx ,
bx +
bx *
b10010001101000101001010110111 )
b0 (
bx '
bx &
0%
1$
bx #
0"
bx !
$end
#5
0$
#10
1$
#15
0$
#20
1$
#22
1%
#25
0$
#30
b11111111111111111111000000000000 X
b11111111111111111111000000000000 }
b11111111111111111111000000000000 &"
b11111111111111111111000000000000 T
b11111111111111111111000000000000 e
b11111111111111111111000000000000 v
b11111111111111111111000000000000 {
b11111111111111111111000000000000 ~
b10 ;
b10 E
b10 J
b10 O
b10 j
b111111111111 c
b111111100110 a
b1011111100110 d
b111111111111111111110 b
b11111111111111111111 `
b111 =
b111 F
b11 H
1>
b1111111111111111111100110 _
b11111 #"
b11111 $"
b110 %"
b1000 [
b1000 g
b1000 o
b11111111111111111111001100110111 )
b11111111111111111111001100110111 .
b11111111111111111111001100110111 1
b11111111111111111111001100110111 S
b1000 Z
b1000 q
b1000 t
b1000 z
b11111111111111111111000000000100 Y
b11111111111111111111000000000100 p
b11111111111111111111000000000100 w
b100 (
b100 /
b100 7
b100 \
b100 f
b100 i
b100 r
b100 u
1$
#35
0$
#40
b1000000000000 X
b1000000000000 }
b1000000000000 &"
b1000000000000 T
b1000000000000 e
b1000000000000 v
b1000000000000 {
b1000000000000 ~
0<
12
b0 #
b0 *
b0 -
b0 :
b0 ]
b0 n
b0 x
b0 k
b0x000000000000 V
b0x000000000000 l
b0x000000000000 !"
b110 ;
b110 E
b110 J
b110 O
b110 j
b0 c
b111 a
b100000000110 d
b1000000000000 b
b1 `
b0 W
b0 m
b0 ("
b0 !
b0 &
b0 ,
b0 3
b0 U
b0 ""
b0 '"
b1 =
b1 F
b10 H
0>
b100111 _
b0 #"
b0 $"
b111 %"
b1100 [
b1100 g
b1100 o
b1001110110111 )
b1001110110111 .
b1001110110111 1
b1001110110111 S
b1100 Z
b1100 q
b1100 t
b1100 z
b1000000001000 Y
b1000000001000 p
b1000000001000 w
b1000 (
b1000 /
b1000 7
b1000 \
b1000 f
b1000 i
b1000 r
b1000 u
1$
#45
0$
#50
b10000000000000000000000000000000 X
b10000000000000000000000000000000 }
b10000000000000000000000000000000 &"
bx0000000000000000000000000000000 V
bx0000000000000000000000000000000 l
bx0000000000000000000000000000000 !"
b10000000000000000000000000000000 T
b10000000000000000000000000000000 e
b10000000000000000000000000000000 v
b10000000000000000000000000000000 {
b10000000000000000000000000000000 ~
x<
x2
bx #
bx *
bx -
bx :
bx ]
bx n
bx x
b0 ;
b0 E
b0 J
b0 O
b0 j
b100000000000 c
b100000001000 a
b1000000001000 d
b100000000000000000000 b
b10000000000000000000 `
b0 =
b0 F
b1000000000000000000001000 _
b1000 %"
b10000 [
b10000 g
b10000 o
b10000000000000000000010000110111 )
b10000000000000000000010000110111 .
b10000000000000000000010000110111 1
b10000000000000000000010000110111 S
b10000 Z
b10000 q
b10000 t
b10000 z
b10000000000000000000000000001100 Y
b10000000000000000000000000001100 p
b10000000000000000000000000001100 w
b1100 (
b1100 /
b1100 7
b1100 \
b1100 f
b1100 i
b1100 r
b1100 u
1$
#55
0$
#60
b1 k
0<
b1 T
b1 e
b1 v
b1 {
b1 ~
b10010001101000101000000000001 X
b10010001101000101000000000001 }
b10010001101000101000000000001 &"
02
b10010001101000101000000000001 #
b10010001101000101000000000001 *
b10010001101000101000000000001 -
b10010001101000101000000000001 :
b10010001101000101000000000001 ]
b10010001101000101000000000001 n
b10010001101000101000000000001 x
b1 V
b1 l
b1 !"
b0 H
0G
b0 8
b0 B
b0 M
b0 P
b0 ^
19
b0 4
b0 @
b0 N
b0 R
b0 |
b10 D
b10 I
b10 L
b1 c
b101 a
b100000000100 d
b101000100000000000 b
b100101000 `
b10010001101000101000000000000 W
b10010001101000101000000000000 m
b10010001101000101000000000000 ("
bx !
bx &
bx ,
bx 3
bx U
bx ""
bx '"
b10011 ?
b10011 K
b10010100000101 _
b101 #"
b1 $"
b101 %"
b10100 [
b10100 g
b10100 o
b100101000001010010011 )
b100101000001010010011 .
b100101000001010010011 1
b100101000001010010011 S
b10100 Z
b10100 q
b10100 t
b10100 z
b10001 Y
b10001 p
b10001 w
b10000 (
b10000 /
b10000 7
b10000 \
b10000 f
b10000 i
b10000 r
b10000 u
1$
#65
0$
#70
bx k
bx V
bx l
bx !"
x6
x<
bx T
bx e
bx v
bx {
bx ~
x2
bx X
bx }
bx &"
xG
x5
bx 8
bx B
bx M
bx P
bx ^
x9
x"
bx 4
bx @
bx N
bx R
bx |
xC
bx D
bx I
bx L
xA
bx ;
bx E
bx J
bx O
bx j
bx c
bx a
bx0 d
bx0 b
bx `
bx #
bx *
bx -
bx :
bx ]
bx n
bx x
bx ?
bx K
bx =
bx F
bx H
x>
bx _
bx #"
bx $"
bx %"
bx W
bx m
bx ("
bx [
bx g
bx o
bx )
bx .
bx 1
bx S
b11000 Z
b11000 q
b11000 t
b11000 z
bx Y
bx p
bx w
b10100 (
b10100 /
b10100 7
b10100 \
b10100 f
b10100 i
b10100 r
b10100 u
1$
#75
0$
#80
bx Z
bx q
bx t
bx z
bx (
bx /
bx 7
bx \
bx f
bx i
bx r
bx u
1$
